{
  "selection": [
    {
      "order": 2,
      "name": "arrow-right"
    },
    {
      "order": 3,
      "name": "close"
    },
    {
      "order": 4,
      "name": "facebook"
    },
    {
      "order": 5,
      "name": "instagram"
    },
    {
      "order": 6,
      "name": "youtube"
    },
    {
      "order": 7,
      "name": "navi"
    },
    {
      "order": 8,
      "name": "rss"
    },
    {
      "order": 9,
      "name": "search"
    },
    {
      "order": 10,
      "name": "slide-next"
    },
    {
      "order": 11,
      "name": "slide-prev"
    },
    {
      "order": 12,
      "name": "spotify"
    }
  ],
  "metadata": {
    "name": "fonts",
    "importSize": {
      "width": 26,
      "height": 17
    },
    "iconsHash": 2085968518
  },
  "height": 1024,
  "prevSize": 32,
  "icons": [
    {
      "paths": [
        "M1001.118 498.137l-314.762-314.762c-3.718-3.404-8.693-5.49-14.155-5.49-11.594 0-20.992 9.398-20.992 20.992 0 5.462 2.086 10.437 5.505 14.171l-0.014-0.016 278.961 278.961h-914.668c-11.594 0-20.992 9.398-20.992 20.992s9.398 20.992 20.992 20.992v0h914.629l-278.961 278.961c-4.208 3.852-6.837 9.37-6.837 15.502 0 11.594 9.398 20.992 20.992 20.992 6.132 0 11.649-2.629 15.487-6.821l0.014-0.016 314.762-314.762c3.813-3.801 6.173-9.059 6.173-14.868 0-5.789-2.343-11.031-6.134-14.829l0 0z"
      ],
      "grid": 0,
      "tags": [
        "arrow-right"
      ]
    },
    {
      "paths": [
        "M624.803 511.969l382.877-382.877c10.186-10.159 16.488-24.209 16.488-39.73s-6.302-29.571-16.487-39.729l-0.001-0.001-33.557-33.251c-10.166-10.171-24.213-16.463-39.73-16.463s-29.564 6.291-39.73 16.463l-382.633 382.816-382.877-382.816c-10.159-10.186-24.209-16.488-39.73-16.488s-29.571 6.302-39.729 16.487l-0.001 0.001-33.312 33.496c-10.201 10.153-16.514 24.204-16.514 39.73s6.313 29.578 16.511 39.728l0.002 0.002 382.877 382.632-382.877 382.877c-10.171 10.166-16.463 24.213-16.463 39.73s6.291 29.564 16.463 39.73l33.557 33.557c10.159 10.186 24.209 16.488 39.73 16.488s29.571-6.302 39.729-16.487l0.001-0.001 382.877-382.877 382.632 382.571c10.065 10.119 23.999 16.381 39.395 16.381 0.075 0 0.149-0 0.224-0l-0.012 0c0.063 0 0.138 0 0.213 0 15.396 0 29.33-6.262 39.393-16.379l0.002-0.002 33.557-33.557c10.171-10.166 16.463-24.213 16.463-39.73s-6.291-29.564-16.463-39.73l-0-0z"
      ],
      "grid": 0,
      "tags": [
        "close"
      ]
    },
    {
      "paths": [
        "M1023.9 512.017c0-0.040 0-0.087 0-0.133 0-282.779-229.238-512.017-512.017-512.017s-512.017 229.238-512.017 512.017c0 282.779 229.238 512.017 512.017 512.017 0.047 0 0.094-0 0.141-0l-0.008 0c3.002 0 6.003 0 9.005-0.2v-398.287h-110.061v-128.204h110.061v-94.386c0-109.394 66.704-168.994 164.391-168.994 1.211-0.006 2.644-0.009 4.078-0.009 33.292 0 66.158 1.821 98.505 5.368l-3.995-0.356v114.397h-67.204c-52.996 0-63.368 25.214-63.368 62.201v81.512h127.004l-16.676 128.204h-110.394v379.043c215.735-63.527 370.534-259.772 370.538-492.172l-0-0z"
      ],
      "grid": 0,
      "tags": [
        "facebook"
      ]
    },
    {
      "paths": [
        "M610.004 511.983c0 54.117-43.871 97.988-97.988 97.988s-97.988-43.871-97.988-97.988c0-54.105 43.852-97.969 97.952-97.988l0.002-0c0.010-0 0.022-0 0.033-0 54.117 0 97.988 43.871 97.988 97.988v0zM610.004 511.983z",
        "M741.177 338.621c-10.109-25.716-30.081-45.689-55.137-55.568l-0.66-0.229c-16.209-6.155-34.947-9.806-54.511-10.005l-0.085-0.001c-31.017-1.401-40.289-1.734-118.799-1.734s-87.815 0.3-118.799 1.701c-19.651 0.201-38.388 3.853-55.719 10.376l1.122-0.37c-25.714 10.112-45.685 30.084-55.568 55.137l-0.23 0.66c-6.154 16.209-9.806 34.947-10.005 54.511l-0.001 0.086c-1.401 30.984-1.734 40.289-1.734 118.799s0.3 87.782 1.734 118.799c0.198 19.65 3.85 38.388 10.376 55.718l-0.37-1.121c10.109 25.716 30.081 45.689 55.137 55.568l0.66 0.229c16.209 6.159 34.947 9.812 54.514 10.005l0.083 0.001c30.984 1.401 40.289 1.701 118.799 1.701s87.815-0.3 118.799-1.701c19.649-0.194 38.388-3.846 55.716-10.375l-1.119 0.37c25.716-10.109 45.689-30.081 55.568-55.137l0.229-0.66c6.152-16.209 9.804-34.946 10.005-54.51l0.001-0.087c1.401-31.017 1.701-40.289 1.701-118.799s-0.3-87.815-1.701-118.799c-0.198-19.639-3.85-38.365-10.375-55.683l0.37 1.119zM511.983 662.967c-83.386 0-150.984-67.598-150.984-150.984s67.598-150.984 150.984-150.984c83.386 0 150.984 67.598 150.984 150.984v0c0 0.010 0 0.022 0 0.033 0 83.386-67.598 150.984-150.984 150.984h-0zM668.937 390.349c-19.488 0-35.286-15.798-35.286-35.286s15.798-35.286 35.286-35.286c19.488 0 35.286 15.798 35.286 35.286v0c0 19.488-15.798 35.286-35.286 35.286v0zM668.937 390.349z",
        "M512.017 0c-0.040-0-0.087-0-0.133-0-282.779 0-512.017 229.238-512.017 512.017s229.238 512.017 512.017 512.017c282.779 0 512.017-229.238 512.017-512.017l-0 0c-0.019-282.724-229.169-511.921-511.874-512.017l-0.010-0zM804.245 633.217c-0.532 25.773-5.502 50.228-14.172 72.851l0.498-1.478c-15.639 39.553-46.397 70.267-84.962 85.493l-1.019 0.354c-21.145 8.17-45.6 13.139-71.146 13.67l-0.227 0.004c-31.351 1.434-41.356 1.768-121.2 1.768s-89.85-0.334-121.234-1.768c-25.773-0.535-50.228-5.505-72.852-14.172l1.479 0.498c-39.57-15.588-70.316-46.3-85.592-84.831l-0.356-1.017c-8.173-21.145-13.143-45.601-13.671-71.147l-0.004-0.225c-1.434-31.351-1.768-41.39-1.768-121.234s0.334-89.85 1.768-121.2c0.532-25.773 5.502-50.228 14.172-72.851l-0.498 1.478c15.62-39.581 46.367-70.327 84.929-85.592l1.018-0.355c21.145-8.169 45.6-13.138 71.145-13.67l0.228-0.004c31.351-1.434 41.356-1.768 121.2-1.768s89.85 0.334 121.2 1.768c25.784 0.533 50.251 5.503 72.886 14.172l-1.48-0.498c39.543 15.639 70.253 46.382 85.493 84.929l0.355 1.018c8.173 21.145 13.143 45.6 13.671 71.147l0.004 0.226c1.434 31.351 1.768 41.356 1.768 121.2s-0.2 89.883-1.634 121.234zM804.245 633.217z"
      ],
      "grid": 0,
      "tags": [
        "instagram"
      ]
    },
    {
      "paths": [
        "M268.982 549.804h40.589v219.722h38.388v-219.722h41.356v-35.987h-120.333z",
        "M593.695 576.652c-14.899 1.033-27.765 8.91-35.581 20.48l-0.105 0.165v-83.379h-34.519v255.708h34.519v-18.444c7.878 11.865 20.736 19.883 35.521 21.068l0.166 0.011c0.271 0.010 0.589 0.015 0.909 0.015 12.999 0 23.877-9.080 26.638-21.244l0.035-0.183c2.292-9.88 3.606-21.225 3.606-32.877 0-1.973-0.038-3.938-0.112-5.893l0.009 0.282v-75.909c0.094-1.956 0.147-4.249 0.147-6.554 0-11.247-1.269-22.197-3.671-32.716l0.189 0.982c-2.755-12.399-13.659-21.532-26.696-21.532-0.37 0-0.739 0.007-1.105 0.022l0.053-0.002zM590.36 715.029c0 17.21-5.036 25.714-15.008 25.714-6.898-0.415-12.977-3.612-17.183-8.474l-0.026-0.031v-116.131c4.258-4.84 10.329-7.997 17.141-8.401l0.068-0.003c10.006 0 15.008 8.805 15.008 26.014z",
        "M459.087 724.601c-7.671 10.806-14.908 16.142-21.845 16.142-4.603 0-7.237-2.701-8.071-8.071-0.246-2.716-0.386-5.875-0.386-9.066 0-1.503 0.031-2.999 0.093-4.487l-0.007 0.213v-140.344h-34.519v150.617c-0.051 1.178-0.080 2.56-0.080 3.948 0 8.672 1.137 17.079 3.269 25.079l-0.154-0.678c2.958 8.386 10.815 14.288 20.050 14.288 0.773 0 1.537-0.041 2.289-0.122l-0.093 0.008c16.393-1.808 30.442-10.544 39.338-23.171l0.117-0.175v20.778h34.552v-190.572h-34.552z",
        "M488.704 402.956c11.24 0 16.676-8.905 16.676-26.681v-81.045c0-17.81-5.403-26.681-16.676-26.681s-16.676 8.872-16.676 26.681v80.978c0.033 17.877 5.436 26.748 16.676 26.748z",
        "M512.017 0c-0.040-0-0.087-0-0.133-0-282.779 0-512.017 229.238-512.017 512.017s229.238 512.017 512.017 512.017c282.779 0 512.017-229.238 512.017-512.017l-0 0c0-282.732-229.162-511.941-511.876-512.017l-0.007-0zM568.948 239.466h34.719v141.745c-0.068 1.246-0.106 2.706-0.106 4.174 0 3.312 0.196 6.579 0.577 9.789l-0.038-0.388c0.767 5.403 3.502 8.171 8.171 8.171 6.971 0 14.308-5.403 22.046-16.342v-147.148h34.886v192.54h-34.819v-20.978c-9.143 12.978-23.396 21.829-39.772 23.624l-0.25 0.022c-0.665 0.073-1.436 0.115-2.216 0.115-9.328 0-17.266-5.956-20.216-14.273l-0.046-0.15c-2.021-7.404-3.182-15.904-3.182-24.676 0-1.386 0.029-2.764 0.086-4.136l-0.007 0.196v-152.284zM437.175 302.267c-0.157-1.816-0.246-3.929-0.246-6.063 0-14.547 4.152-28.123 11.335-39.61l-0.183 0.314c9.557-12.071 24.21-19.745 40.656-19.745s31.099 7.674 40.573 19.637l0.082 0.108c6.935 11.207 11.045 24.798 11.045 39.348 0 2.116-0.087 4.211-0.257 6.283l0.018-0.272v67.437c0.153 1.802 0.241 3.899 0.241 6.017 0 14.526-4.111 28.092-11.233 39.598l0.186-0.323c-9.57 12.047-24.219 19.704-40.656 19.704s-31.086-7.657-40.574-19.598l-0.081-0.106c-7-11.151-11.153-24.706-11.153-39.231 0-2.133 0.090-4.246 0.265-6.334l-0.018 0.273zM343.79 173.663l27.482 101.456 26.381-101.456h39.255l-46.693 153.718v104.658h-38.688v-104.658c-7.099-32.292-15.249-59.636-25.114-86.145l1.434 4.399c-8.138-23.98-16.676-48.027-24.78-71.973h40.689zM787.369 786.335c-6.715 29.76-31.133 52.286-61.379 56.095l-0.355 0.036c-53.264 5.251-115.134 8.246-177.703 8.246-12.734 0-25.438-0.124-38.113-0.371l1.898 0.029c-10.777 0.218-23.484 0.342-36.219 0.342-62.568 0-124.437-2.995-185.471-8.849l7.772 0.603c-30.606-3.835-55.029-26.366-61.643-55.649l-0.092-0.482c-6.631-33.795-10.425-72.654-10.425-112.4 0-7.963 0.152-15.889 0.454-23.778l-0.035 1.136c-0.266-6.735-0.417-14.644-0.417-22.587 0-39.764 3.793-78.643 11.037-116.293l-0.615 3.839c6.789-29.817 31.373-52.339 61.759-55.964l0.342-0.033c53.266-5.251 115.138-8.246 177.709-8.246 12.732 0 25.436 0.124 38.109 0.371l-1.9-0.029c10.776-0.218 23.482-0.342 36.216-0.342 62.568 0 124.437 2.995 185.471 8.848l-7.769-0.602c30.611 3.842 55.040 26.367 61.675 55.648l0.092 0.483c6.627 33.837 10.419 72.746 10.419 112.541 0 7.913-0.15 15.791-0.447 23.631l0.034-1.13c0.251 6.54 0.394 14.221 0.394 21.935 0 39.951-3.833 79.006-11.152 116.818l0.62-3.845z",
        "M703.623 576.652c-0.649-0.031-1.409-0.048-2.173-0.048-15.962 0-30.142 7.628-39.094 19.437l-0.089 0.122c-6.859 11.038-10.925 24.432-10.925 38.775 0 2.153 0.092 4.284 0.271 6.391l-0.019-0.275v66.704c-0.136 1.674-0.213 3.623-0.213 5.591 0 14.537 4.218 28.088 11.496 39.497l-0.177-0.297c9.112 11.942 23.352 19.57 39.374 19.57 0.85 0 1.695-0.021 2.534-0.064l-0.118 0.005c0.712 0.038 1.545 0.060 2.383 0.060 16.259 0 30.619-8.13 39.236-20.547l0.103-0.157c4.054-5.857 6.906-12.851 8.038-20.408l0.033-0.27c0.334-3.335 0.734-11.106 0.734-22.246v-5.003h-35.186c0.025 1.266 0.040 2.758 0.040 4.254 0 6.721-0.293 13.373-0.867 19.945l0.060-0.852c-0.533 7.761-6.959 13.855-14.809 13.855-0.223 0-0.444-0.005-0.665-0.015l0.031 0.001c-11.873 0-17.676-8.805-17.676-26.415v-33.752h69.072v-39.455c0.152-1.788 0.238-3.869 0.238-5.97 0-14.391-4.060-27.833-11.096-39.244l0.185 0.323c-8.823-11.916-22.833-19.557-38.628-19.557-0.737 0-1.47 0.017-2.198 0.050l0.103-0.004zM720.499 651.794h-34.486v-17.643q0-26.415 17.343-26.415c11.406 0 17.21 8.805 17.21 26.415z"
      ],
      "grid": 0,
      "tags": [
        "youtube"
      ]
    },
    {
      "paths": [
        "M917.333 640c-23.564 0-42.667-19.103-42.667-42.667 0-9.653 3.206-18.558 8.611-25.707l-0.078 0.107 44.8-59.733-44.8-59.733c-5.327-7.042-8.533-15.947-8.533-25.6 0-23.564 19.103-42.667 42.667-42.667 13.911 0 26.267 6.657 34.056 16.959l0.078 0.107 64 85.333c5.327 7.042 8.533 15.947 8.533 25.6s-3.206 18.558-8.611 25.707l0.078-0.107-64 85.333c-7.808 10.406-20.118 17.067-33.984 17.067-0.053 0-0.105-0-0.158-0l0.008 0z",
        "M106.667 640c-13.911 0-26.267-6.657-34.056-16.959l-0.078-0.107-64-85.333c-5.327-7.042-8.533-15.947-8.533-25.6s3.206-18.558 8.611-25.707l-0.078 0.107 64-85.333c7.867-10.41 20.223-17.067 34.133-17.067 23.564 0 42.667 19.103 42.667 42.667 0 9.653-3.206 18.558-8.611 25.707l0.078-0.107-44.8 59.733 44.8 59.733c5.327 7.042 8.533 15.947 8.533 25.6 0 23.564-19.103 42.667-42.667 42.667h0z",
        "M682.667 938.667h-341.333c-70.692 0-128-57.308-128-128v0-597.333c0-70.692 57.308-128 128-128v0h341.333c70.692 0 128 57.308 128 128v0 597.333c0 70.692-57.308 128-128 128v0zM341.333 170.667c-23.564 0-42.667 19.103-42.667 42.667v0 597.333c0 23.564 19.103 42.667 42.667 42.667v0h341.333c23.564 0 42.667-19.103 42.667-42.667v0-597.333c0-23.564-19.103-42.667-42.667-42.667v0z"
      ],
      "grid": 0,
      "tags": [
        "navi"
      ]
    },
    {
      "paths": [
        "M510.332 0c-280.182 0-510.332 230.15-510.332 513.668s230.15 510.332 510.332 510.332c283.518 0 513.668-230.15 513.668-510.332-0-283.518-230.15-513.668-513.668-513.668zM376.912 753.824c-43.362 0-76.717-33.355-76.717-76.717s33.355-76.717 76.717-76.717c43.362 0 76.717 33.355 76.717 76.717s-33.355 76.717-76.717 76.717zM550.358 747.153c0-140.091-113.407-250.163-250.163-250.163v-100.065c193.459 0 350.228 156.769 350.228 350.228h-100.065zM720.469 747.153c0-233.485-186.788-420.274-420.274-420.274v-100.065c286.853 0 520.339 233.485 520.339 520.339h-100.065z"
      ],
      "grid": 0,
      "tags": [
        "rss"
      ]
    },
    {
      "paths": [
        "M1011.478 951.303l-246.011-246.188c61.038-73.839 98.062-169.48 98.062-273.769 0-238.136-193.047-431.184-431.184-431.184s-431.184 193.047-431.184 431.184c0 238.136 193.047 431.184 431.184 431.184 103.734 0 198.912-36.632 273.304-97.665l-0.757 0.602 246.188 245.967c7.572 6.986 17.728 11.269 28.885 11.269 23.557 0 42.654-19.097 42.654-42.654 0-11.091-4.233-21.193-11.172-28.779l0.029 0.033zM431.537 777.192c-190.892-0.076-345.61-154.841-345.61-345.743 0-190.949 154.795-345.743 345.743-345.743s345.743 154.795 345.743 345.743c0 0.031-0 0.062-0 0.094l0-0.005c-0.252 190.876-154.982 345.529-345.864 345.655l-0.012 0z"
      ],
      "grid": 0,
      "tags": [
        "search"
      ]
    },
    {
      "paths": [
        "M512 0c-282.996 0-512 229.004-512 512s229.004 512 512 512 512-229.004 512-512-229.004-512-512-512zM590.196 523.171v0l-132.189 132.189c-7.447 9.309-22.342 9.309-29.789 1.862-9.309-7.447-9.309-22.342-1.862-29.789 0 0 1.862-1.862 1.862-1.862l117.295-117.295-119.156-117.295c-7.447-9.309-7.447-22.342 0-29.789s22.342-7.447 29.789 0l132.189 132.189c9.309 7.447 9.309 22.342 1.862 29.789z"
      ],
      "grid": 0,
      "tags": [
        "slide-next"
      ]
    },
    {
      "paths": [
        "M512 1024c282.996 0 512-229.004 512-512s-229.004-512-512-512-512 229.004-512 512 229.004 512 512 512zM433.804 500.829v0l132.189-132.189c7.447-9.309 22.342-9.309 29.789-1.862 9.309 7.447 9.309 22.342 1.862 29.789 0 0-1.862 1.862-1.862 1.862l-117.295 117.295 117.295 117.295c7.447 9.309 7.447 22.342 0 29.789s-22.342 7.447-29.789 0l-132.189-132.189c-7.447-7.447-7.447-22.342 0-29.789z"
      ],
      "grid": 0,
      "tags": [
        "slide-prev"
      ]
    },
    {
      "paths": [
        "M512.017 1023.9c282.779 0 512.017-229.238 512.017-512.017s-229.238-512.017-512.017-512.017c-282.779 0-512.017 229.238-512.017 512.017 0 0.047 0 0.094 0 0.14l-0-0.007c0.171 282.684 229.323 511.789 512.008 511.883l0.009 0zM719.898 753.217v0c-34.419 0-143.179-120.667-448.848-58.032-7.049 2.36-15.367 4.244-23.939 5.305l-0.641 0.065c-18.23-0.64-32.765-15.572-32.765-33.899 0-16.723 12.102-30.619 28.026-33.409l0.203-0.030c169.094-37.321 341.889-34.052 489.271 54.097 12.327 5.398 20.783 17.491 20.783 31.559 0 18.176-14.116 33.055-31.983 34.272l-0.106 0.006zM775.496 617.842c-4.836-1.267-3.335 2.935-25.481-8.671-92.987-52.071-204.051-82.737-322.277-82.737-60.541 0-119.204 8.041-174.979 23.114l4.683-1.078c-7.226 2.841-15.591 4.758-24.318 5.355l-0.262 0.014c-22.413-0.979-40.213-19.387-40.213-41.952 0-19.707 13.577-36.244 31.887-40.767l0.288-0.060c61.095-17.981 131.283-28.326 203.889-28.326 133.431 0 258.701 34.94 367.161 96.169l-3.735-1.939c14.009 7.296 23.41 21.707 23.41 38.313 0 0.824-0.023 1.643-0.069 2.455l0.005-0.113c0.001 0.089 0.001 0.195 0.001 0.3 0 22.104-17.919 40.022-40.022 40.022-0 0-0.001-0-0.001-0l0 0zM194.041 298.599c192.84-56.498 485.035-38.688 666.636 67.304 16.218 8.54 27.087 25.28 27.087 44.559 0 27.067-21.423 49.13-48.238 50.157l-0.094 0.003c-0.055 0-0.12 0-0.185 0-9.882 0-19.060-3.016-26.663-8.178l0.166 0.106c-146.748-87.715-409.76-108.76-579.854-61.267-7.857 2.83-16.949 4.736-26.398 5.322l-0.283 0.014c-0.143 0.002-0.312 0.002-0.48 0.002-26.303 0-47.626-21.323-47.626-47.626 0-0.4 0.005-0.798 0.015-1.195l-0.001 0.059c-0.032-0.659-0.050-1.431-0.050-2.208 0-22.379 15.077-41.237 35.627-46.971l0.343-0.082z"
      ],
      "grid": 0,
      "tags": [
        "spotify"
      ]
    }
  ],
  "colorThemes": [],
  "preferences": {
    "showGlyphs": true,
    "showCodes": true,
    "showQuickUse": true,
    "showQuickUse2": true,
    "showSVGs": true,
    "fontPref": {
      "prefix": "icon-",
      "metadata": {},
      "metrics": {
        "emSize": 1024,
        "baseline": 6.25,
        "whitespace": 50
      }
    },
    "imagePref": {
      "prefix": "icon-",
      "png": true,
      "useClassSelector": true,
      "color": 0,
      "bgColor": 16777215
    },
    "historySize": 50,
    "gridSize": 16
  },
  "IcoMoonType": "icon-set"
}